Cadence:--Select Cadence--
Cadence:16PROD01
Cadence:16PROD02
Cadence:16PROD03
Cadence:16PROD04
Cadence:16PROD05
Cadence:16PROD06
Release:--Select Release--
Release:15.20.00
Release:16.01.00
Release:16.02.00
Release:16.03.00
Release:16.04.00
Release:16.05.00
Release:16.06.00
Release:16.07.00
Release:16.08.00
Release:16.09.00
Release:16.10.00
Release:16.11.00
Release:16.12.00
Release:16.13.00
Release:16.14.00
Release:16.15.00
Release:16.16.00
Release:16.17.00
Release:16.18.00
Release:17.00.10
Team:--Select Team--
Team:Team Orion
Team:Ticket Masters
Team:The Architects
Team:TKOs